-------------------------------------------------------------------------------
Test set: com.hcl.webinar.service.ServiceTest
-------------------------------------------------------------------------------
Tests run: 1, Failures: 0, Errors: 0, Skipped: 0, Time elapsed: 32.477 s - in com.hcl.webinar.service.ServiceTest
